^C:\USERS\AEILA\DOCUMENTS\DOCS\TECHNION\SIPL\EW5\EWALLET_SIMULATIONS\EWALLET_SIMULATIONS\X64\DEBUG\FFT.OBJ|C:\USERS\AEILA\DOCUMENTS\DOCS\TECHNION\SIPL\EW5\EWALLET_SIMULATIONS\EWALLET_SIMULATIONS\X64\DEBUG\READ_AUDIO_SAMPLES.OBJ|C:\USERS\AEILA\DOCUMENTS\DOCS\TECHNION\SIPL\EW5\EWALLET_SIMULATIONS\EWALLET_SIMULATIONS\X64\DEBUG\SIGNAL-PROCESSING.OBJ|C:\USERS\AEILA\DOCUMENTS\DOCS\TECHNION\SIPL\EW5\EWALLET_SIMULATIONS\EWALLET_SIMULATIONS\X64\DEBUG\SINGEN_SIMULATION.OBJ|C:\USERS\AEILA\DOCUMENTS\DOCS\TECHNION\SIPL\EW5\EWALLET_SIMULATIONS\EWALLET_SIMULATIONS\X64\DEBUG\WAV_WRITER.OBJ
/OUT:"C:\USERS\AEILA\DOCUMENTS\DOCS\TECHNION\SIPL\EW5\EWALLET_SIMULATIONS\X64\DEBUG\TOOLS_DEMO.EXE" /INCREMENTAL /ILK:"X64\DEBUG\TOOLS_DEMO.ILK" /NOLOGO KERNEL32.LIB USER32.LIB GDI32.LIB WINSPOOL.LIB COMDLG32.LIB ADVAPI32.LIB SHELL32.LIB OLE32.LIB OLEAUT32.LIB UUID.LIB ODBC32.LIB ODBCCP32.LIB /MANIFEST /MANIFESTUAC:"level='asInvoker' uiAccess='false'" /manifest:embed /DEBUG /PDB:"C:\USERS\AEILA\DOCUMENTS\DOCS\TECHNION\SIPL\EW5\EWALLET_SIMULATIONS\X64\DEBUG\TOOLS_DEMO.PDB" /SUBSYSTEM:CONSOLE /TLBID:1 /DYNAMICBASE /NXCOMPAT /IMPLIB:"C:\USERS\AEILA\DOCUMENTS\DOCS\TECHNION\SIPL\EW5\EWALLET_SIMULATIONS\X64\DEBUG\TOOLS_DEMO.LIB" /MACHINE:X64 X64\DEBUG\FFT.OBJ
"X64\DEBUG\SIGNAL-PROCESSING.OBJ"
X64\DEBUG\SINGEN_SIMULATION.OBJ
X64\DEBUG\READ_AUDIO_SAMPLES.OBJ
X64\DEBUG\WAV_WRITER.OBJ
